<?xml version="1.0" encoding="utf-8" ?>
<!DOCTYPE svg PUBLIC "-//W3C//DTD SVG 1.1//EN" "http://www.w3.org/Graphics/SVG/1.1/DTD/svg11.dtd">
<svg height="696" version="1.1" width="705" xmlns="http://www.w3.org/2000/svg">
<rect fill="#ffc8ff" height="68" stroke="#ffc8ff" stroke-width="1" width="66" x="537" y="414"/>
<rect fill="none" height="68" stroke="#000000" stroke-width="1" width="66" x="537" y="414"/>
<text font-family="Lucida Grande" font-size="13" x="553" y="428">
Node</text>
<rect fill="#000000" height="1" stroke="#000000" stroke-width="1" width="66" x="537" y="438"/>
<rect fill="#000000" height="1" stroke="#000000" stroke-width="1" width="66" x="537" y="459"/>
<rect fill="#ffffff" height="68" stroke="#ffffff" stroke-width="1" width="87" x="225" y="414"/>
<rect fill="none" height="68" stroke="#000000" stroke-width="1" width="87" x="225" y="414"/>
<text font-family="Lucida Grande" font-size="13" x="230" y="428">
ImageFrame</text>
<rect fill="#000000" height="1" stroke="#000000" stroke-width="1" width="87" x="225" y="438"/>
<rect fill="#000000" height="1" stroke="#000000" stroke-width="1" width="87" x="225" y="459"/>
<rect fill="#ffffff" height="68" stroke="#ffffff" stroke-width="1" width="77" x="233" y="310"/>
<rect fill="none" height="68" stroke="#000000" stroke-width="1" width="77" x="233" y="310"/>
<text font-family="Lucida Grande" font-size="13" x="238" y="324">
ImageFlow</text>
<rect fill="#000000" height="1" stroke="#000000" stroke-width="1" width="77" x="233" y="334"/>
<rect fill="#000000" height="1" stroke="#000000" stroke-width="1" width="77" x="233" y="355"/>
<rect fill="#ffffff" height="68" stroke="#ffffff" stroke-width="1" width="105" x="337" y="310"/>
<rect fill="none" height="68" stroke="#000000" stroke-width="1" width="105" x="337" y="310"/>
<text font-family="Lucida Grande" font-size="13" x="342" y="324">
DiscreteStream</text>
<rect fill="#000000" height="1" stroke="#000000" stroke-width="1" width="105" x="337" y="334"/>
<rect fill="#000000" height="1" stroke="#000000" stroke-width="1" width="105" x="337" y="355"/>
<rect fill="#ffffff" height="68" stroke="#ffffff" stroke-width="1" width="118" x="481" y="310"/>
<rect fill="none" height="68" stroke="#000000" stroke-width="1" width="118" x="481" y="310"/>
<text font-family="Lucida Grande" font-size="13" x="486" y="324">
ContinousStream</text>
<rect fill="#000000" height="1" stroke="#000000" stroke-width="1" width="118" x="481" y="334"/>
<rect fill="#000000" height="1" stroke="#000000" stroke-width="1" width="118" x="481" y="355"/>
<rect fill="#ffffff" height="68" stroke="#ffffff" stroke-width="1" width="116" x="337" y="110"/>
<rect fill="none" height="68" stroke="#000000" stroke-width="1" width="116" x="337" y="110"/>
<text font-family="Lucida Grande" font-size="13" x="344" y="124">
ParametricSpace</text>
<rect fill="#000000" height="1" stroke="#000000" stroke-width="1" width="116" x="337" y="134"/>
<rect fill="#000000" height="1" stroke="#000000" stroke-width="1" width="116" x="337" y="155"/>
<rect fill="#ffc8ff" height="68" stroke="#ffc8ff" stroke-width="1" width="75" x="345" y="414"/>
<rect fill="none" height="68" stroke="#000000" stroke-width="1" width="75" x="345" y="414"/>
<text font-family="Lucida Grande" font-size="13" x="350" y="428">
TimeBlock</text>
<rect fill="#000000" height="1" stroke="#000000" stroke-width="1" width="75" x="345" y="438"/>
<rect fill="#000000" height="1" stroke="#000000" stroke-width="1" width="75" x="345" y="459"/>
<rect fill="#ffc8ff" height="68" stroke="#ffc8ff" stroke-width="1" width="66" x="353" y="526"/>
<rect fill="none" height="68" stroke="#000000" stroke-width="1" width="66" x="353" y="526"/>
<text font-family="Lucida Grande" font-size="13" x="367" y="540">
Button</text>
<rect fill="#000000" height="1" stroke="#000000" stroke-width="1" width="66" x="353" y="550"/>
<rect fill="#000000" height="1" stroke="#000000" stroke-width="1" width="66" x="353" y="571"/>
<rect fill="#ffc8ff" height="68" stroke="#ffc8ff" stroke-width="1" width="66" x="361" y="14"/>
<rect fill="none" height="68" stroke="#000000" stroke-width="1" width="66" x="361" y="14"/>
<text font-family="Lucida Grande" font-size="13" x="371" y="28">
Canvas</text>
<rect fill="#000000" height="1" stroke="#000000" stroke-width="1" width="66" x="361" y="38"/>
<rect fill="#000000" height="1" stroke="#000000" stroke-width="1" width="66" x="361" y="59"/>
<polyline fill="none" points="394,81 394,110" stroke="#000000" stroke-width="1"/>
<polygon fill="#ffffff" points="394,81 399,91 394,101 389,91" stroke="#ffffff" stroke-width="1"/>
<polygon fill="none" points="394,81 399,91 394,101 389,91" stroke="#000000" stroke-width="1"/>
<polyline fill="none" points="418,526 441,518 441,377" stroke="#000000" stroke-width="1"/>
<line fill="#000000" stroke="#000000" stroke-width="1" x1="448" x2="441" y1="389" y2="377"/>
<line fill="#000000" stroke="#000000" stroke-width="1" x1="434" x2="441" y1="389" y2="377"/>
<polyline fill="none" points="418,526 529,526 529,377" stroke="#000000" stroke-width="1"/>
<line fill="#000000" stroke="#000000" stroke-width="1" x1="536" x2="529" y1="389" y2="377"/>
<line fill="#000000" stroke="#000000" stroke-width="1" x1="522" x2="529" y1="389" y2="377"/>
<polyline fill="none" points="353,526 337,518 337,406 309,377" stroke="#000000" stroke-width="1"/>
<line fill="#000000" stroke="#000000" stroke-width="1" x1="322" x2="309" y1="380" y2="377"/>
<line fill="#000000" stroke="#000000" stroke-width="1" x1="312" x2="309" y1="390" y2="377"/>
<rect fill="#ffffff" height="68" stroke="#ffffff" stroke-width="1" width="66" x="129" y="110"/>
<rect fill="none" height="68" stroke="#000000" stroke-width="1" width="66" x="129" y="110"/>
<text font-family="Lucida Grande" font-size="13" x="148" y="124">
Axis</text>
<rect fill="#000000" height="1" stroke="#000000" stroke-width="1" width="66" x="129" y="134"/>
<rect fill="#000000" height="1" stroke="#000000" stroke-width="1" width="66" x="129" y="155"/>
<polyline fill="none" points="194,142 337,142" stroke="#000000" stroke-width="1"/>
<line fill="#000000" stroke="#000000" stroke-width="1" x1="325" x2="337" y1="149" y2="142"/>
<line fill="#000000" stroke="#000000" stroke-width="1" x1="325" x2="337" y1="135" y2="142"/>
<text font-family="Lucida Grande" font-size="13" x="221" y="122">
Dimensions</text>
<rect fill="#ffffff" height="68" stroke="#ffffff" stroke-width="1" width="66" x="25" y="110"/>
<rect fill="none" height="68" stroke="#000000" stroke-width="1" width="66" x="25" y="110"/>
<text font-family="Lucida Grande" font-size="13" x="42" y="124">
Scale</text>
<rect fill="#000000" height="1" stroke="#000000" stroke-width="1" width="66" x="25" y="134"/>
<rect fill="#000000" height="1" stroke="#000000" stroke-width="1" width="66" x="25" y="155"/>
<rect fill="#ffffff" height="68" stroke="#ffffff" stroke-width="1" width="66" x="25" y="198"/>
<rect fill="none" height="68" stroke="#000000" stroke-width="1" width="66" x="25" y="198"/>
<text font-family="Lucida Grande" font-size="13" x="44" y="212">
Rule</text>
<rect fill="#000000" height="1" stroke="#000000" stroke-width="1" width="66" x="25" y="222"/>
<rect fill="#000000" height="1" stroke="#000000" stroke-width="1" width="66" x="25" y="243"/>
<rect fill="#ffffff" height="68" stroke="#ffffff" stroke-width="1" width="66" x="25" y="286"/>
<rect fill="none" height="68" stroke="#000000" stroke-width="1" width="66" x="25" y="286"/>
<text font-family="Lucida Grande" font-size="13" x="41" y="300">
Label</text>
<rect fill="#000000" height="1" stroke="#000000" stroke-width="1" width="66" x="25" y="310"/>
<rect fill="#000000" height="1" stroke="#000000" stroke-width="1" width="66" x="25" y="331"/>
<polyline fill="none" points="90,134 129,134" stroke="#000000" stroke-width="1"/>
<line fill="#000000" stroke="#000000" stroke-width="1" x1="117" x2="129" y1="141" y2="134"/>
<line fill="#000000" stroke="#000000" stroke-width="1" x1="117" x2="129" y1="127" y2="134"/>
<polyline fill="none" points="90,198 105,190 105,150 129,150" stroke="#000000" stroke-width="1"/>
<line fill="#000000" stroke="#000000" stroke-width="1" x1="117" x2="129" y1="157" y2="150"/>
<line fill="#000000" stroke="#000000" stroke-width="1" x1="117" x2="129" y1="143" y2="150"/>
<polyline fill="none" points="90,286 113,278 113,166 129,166" stroke="#000000" stroke-width="1"/>
<line fill="#000000" stroke="#000000" stroke-width="1" x1="117" x2="129" y1="173" y2="166"/>
<line fill="#000000" stroke="#000000" stroke-width="1" x1="117" x2="129" y1="159" y2="166"/>
<rect fill="#ffffff" height="68" stroke="#ffffff" stroke-width="1" width="66" x="129" y="414"/>
<rect fill="none" height="68" stroke="#000000" stroke-width="1" width="66" x="129" y="414"/>
<text font-family="Lucida Grande" font-size="13" x="143" y="428">
Image</text>
<rect fill="#000000" height="1" stroke="#000000" stroke-width="1" width="66" x="129" y="438"/>
<rect fill="#000000" height="1" stroke="#000000" stroke-width="1" width="66" x="129" y="459"/>
<polyline fill="none" points="194,430 225,430" stroke="#000000" stroke-width="1"/>
<line fill="#000000" stroke="#000000" stroke-width="1" x1="213" x2="225" y1="437" y2="430"/>
<line fill="#000000" stroke="#000000" stroke-width="1" x1="213" x2="225" y1="423" y2="430"/>
<rect fill="#ffffff" height="68" stroke="#ffffff" stroke-width="1" width="66" x="353" y="614"/>
<rect fill="none" height="68" stroke="#000000" stroke-width="1" width="66" x="353" y="614"/>
<text font-family="Lucida Grande" font-size="13" x="360" y="628">
Position</text>
<rect fill="#000000" height="1" stroke="#000000" stroke-width="1" width="66" x="353" y="638"/>
<rect fill="#000000" height="1" stroke="#000000" stroke-width="1" width="66" x="353" y="659"/>
<polyline fill="none" points="353,614 289,590 289,481" stroke="#000000" stroke-width="1"/>
<line fill="#000000" stroke="#000000" stroke-width="1" x1="296" x2="289" y1="493" y2="481"/>
<line fill="#000000" stroke="#000000" stroke-width="1" x1="282" x2="289" y1="493" y2="481"/>
<polyline fill="none" points="561,414 561,377" stroke="#000000" stroke-width="1"/>
<line fill="#000000" stroke="#000000" stroke-width="1" x1="568" x2="561" y1="389" y2="377"/>
<line fill="#000000" stroke="#000000" stroke-width="1" x1="554" x2="561" y1="389" y2="377"/>
<rect fill="#ffffff" height="68" stroke="#ffffff" stroke-width="1" width="66" x="449" y="414"/>
<rect fill="none" height="68" stroke="#000000" stroke-width="1" width="66" x="449" y="414"/>
<text font-family="Lucida Grande" font-size="13" x="465" y="428">
Color</text>
<rect fill="#000000" height="1" stroke="#000000" stroke-width="1" width="66" x="449" y="438"/>
<rect fill="#000000" height="1" stroke="#000000" stroke-width="1" width="66" x="449" y="459"/>
<rect fill="#ffffff" height="68" stroke="#ffffff" stroke-width="1" width="66" x="625" y="414"/>
<rect fill="none" height="68" stroke="#000000" stroke-width="1" width="66" x="625" y="414"/>
<text font-family="Lucida Grande" font-size="13" x="641" y="428">
Label</text>
<rect fill="#000000" height="1" stroke="#000000" stroke-width="1" width="66" x="625" y="438"/>
<rect fill="#000000" height="1" stroke="#000000" stroke-width="1" width="66" x="625" y="459"/>
<polyline fill="none" points="497,414 497,377" stroke="#000000" stroke-width="1"/>
<line fill="#000000" stroke="#000000" stroke-width="1" x1="504" x2="497" y1="389" y2="377"/>
<line fill="#000000" stroke="#000000" stroke-width="1" x1="490" x2="497" y1="389" y2="377"/>
<polyline fill="none" points="625,414 593,398 593,377" stroke="#000000" stroke-width="1"/>
<line fill="#000000" stroke="#000000" stroke-width="1" x1="600" x2="593" y1="389" y2="377"/>
<line fill="#000000" stroke="#000000" stroke-width="1" x1="586" x2="593" y1="389" y2="377"/>
<polyline fill="none" points="449,414 425,406 425,377" stroke="#000000" stroke-width="1"/>
<line fill="#000000" stroke="#000000" stroke-width="1" x1="432" x2="425" y1="389" y2="377"/>
<line fill="#000000" stroke="#000000" stroke-width="1" x1="418" x2="425" y1="389" y2="377"/>
<ellipse cx="426" cy="403" fill="#000000" rx="0.5" ry="0.5" stroke="#000000" stroke-width="1"/>
<ellipse cx="427" cy="404" fill="#ffffff" rx="-0.5" ry="-0.5" stroke="#ffffff" stroke-width="1"/>
<polyline fill="none" points="265,414 265,377" stroke="#000000" stroke-width="1"/>
<line fill="#000000" stroke="#000000" stroke-width="1" x1="272" x2="265" y1="389" y2="377"/>
<line fill="#000000" stroke="#000000" stroke-width="1" x1="258" x2="265" y1="389" y2="377"/>
<polyline fill="none" points="385,414 385,377" stroke="#000000" stroke-width="1"/>
<line fill="#000000" stroke="#000000" stroke-width="1" x1="392" x2="385" y1="389" y2="377"/>
<line fill="#000000" stroke="#000000" stroke-width="1" x1="378" x2="385" y1="389" y2="377"/>
<rect fill="#ffffff" height="68" stroke="#ffffff" stroke-width="1" width="66" x="361" y="206"/>
<rect fill="none" height="68" stroke="#000000" stroke-width="1" width="66" x="361" y="206"/>
<text font-family="Lucida Grande" font-size="13" x="375" y="220">
Graph</text>
<rect fill="#000000" height="1" stroke="#000000" stroke-width="1" width="66" x="361" y="230"/>
<rect fill="#000000" height="1" stroke="#000000" stroke-width="1" width="66" x="361" y="251"/>
<polyline fill="none" points="481,310 426,273" stroke="#000000" stroke-width="1"/>
<polygon fill="#ffffff" points="426,273 439,273 432,285" stroke="#ffffff" stroke-width="1"/>
<polygon fill="none" points="426,273 439,273 432,285" stroke="#000000" stroke-width="1"/>
<polyline fill="none" points="393,310 393,273" stroke="#000000" stroke-width="1"/>
<polygon fill="#ffffff" points="393,273 400,285 386,285" stroke="#ffffff" stroke-width="1"/>
<polygon fill="none" points="393,273 400,285 386,285" stroke="#000000" stroke-width="1"/>
<polyline fill="none" points="309,310 361,273" stroke="#000000" stroke-width="1"/>
<polygon fill="#ffffff" points="361,273 355,285 347,274" stroke="#ffffff" stroke-width="1"/>
<polygon fill="none" points="361,273 355,285 347,274" stroke="#000000" stroke-width="1"/>
<polyline fill="none" points="393,206 393,177" stroke="#000000" stroke-width="1"/>
<line fill="#000000" stroke="#000000" stroke-width="1" x1="400" x2="393" y1="189" y2="177"/>
<line fill="#000000" stroke="#000000" stroke-width="1" x1="386" x2="393" y1="189" y2="177"/>
<polyline fill="none" points="418,614 561,598 561,481" stroke="#000000" stroke-width="1"/>
<line fill="#000000" stroke="#000000" stroke-width="1" x1="568" x2="561" y1="493" y2="481"/>
<line fill="#000000" stroke="#000000" stroke-width="1" x1="554" x2="561" y1="493" y2="481"/>
<polyline fill="none" points="418,614 465,598 465,502 385,502 385,481" stroke="#000000" stroke-width="1"/>
<line fill="#000000" stroke="#000000" stroke-width="1" x1="392" x2="385" y1="493" y2="481"/>
<line fill="#000000" stroke="#000000" stroke-width="1" x1="378" x2="385" y1="493" y2="481"/>
</svg>
